%YAML 1.1
%TAG !u! tag:unity3d.com,2011:
--- !u!114 &11400000
MonoBehaviour:
  m_ObjectHideFlags: 0
  m_CorrespondingSourceObject: {fileID: 0}
  m_PrefabInstance: {fileID: 0}
  m_PrefabAsset: {fileID: 0}
  m_GameObject: {fileID: 0}
  m_Enabled: 1
  m_EditorHideFlags: 0
  m_Script: {fileID: 11500000, guid: dbfa8b70a4fe88842b9917cb1c750ed7, type: 3}
  m_Name: ShapeL
  m_EditorClassIdentifier: 
  shape:
    tilesPositions:
    - {x: 0, y: 2}
    - {x: 0, y: 1}
    - {x: 0, y: 0}
    - {x: 1, y: 0}
